sim/work/sim_log/waveform.vcd
$date
    Dec 20, 2024  13:45:55
$end
$version
    TOOL:	xmsim(64)	22.09-s004
$end
$timescale
    1 ns
$end

$scope module tb_spi $end
$var reg       1 !    clk $end
$var reg       1 "    rst $end

$scope module i_spi $end
$var wire      1 #    clk  $end
$var wire      1 $    rst  $end
$var reg      32 %    data_config [31:0] $end
$var reg       1 &    trans_en $end
$var reg       8 '    i_data_p [7:0] $end
$var reg       8 (    o_data_p [7:0] $end
$var reg       1 )    interupt_request $end
$var wire      1 *    SCK  $end
$var wire      1 +    io_miso_s  $end
$var wire      1 ,    io_mosi_s  $end
$var wire      1 -    SS  $end

$scope clocking driver_cb $end
$var reg       8 .    o_data_p [7:0] $end
$var reg       1 /    interupt_request $end
$var reg       8 0    i_data_p [7:0] $end
$var reg      32 1    data_config [31:0] $end
$var reg       1 2    trans_en $end
$var reg       1 3    SCK $end
$var reg       1 4    io_miso_s $end
$var reg       1 5    io_mosi_s $end
$var reg       1 6    SS $end
$upscope $end

$upscope $end


$scope module uut $end
$var wire      1 #    i_sys_clk  $end
$var wire      1 $    i_sys_rst  $end
$var wire     32 7    i_data_config [31:0] $end
$var wire      1 8    i_trans_en  $end
$var wire      8 9    i_data [7:0] $end
$var wire      8 :    o_data [7:0] $end
$var wire      1 ;    o_interrupt  $end
$var wire      1 *    io_SCK  $end
$var wire      1 ,    io_MOSI  $end
$var wire      1 +    io_MISO  $end
$var wire      1 -    io_SS  $end
$var reg       8 <    R_SPI_CONTROL_1 [7:0] $end
$var reg       8 =    R_SPI_CONTROL_2 [7:0] $end
$var reg       8 >    R_SPI_STATUS [7:0] $end
$var reg       8 ?    R_SPI_BAUD_RATE [7:0] $end
$var reg       8 @    R_SPI_DATA_SHIFT [7:0] $end
$var reg       8 A    R_SPI_DATA [7:0] $end
$var reg       4 B    counter_i [3:0] $end
$var reg      12 C    R_counter_div [11:0] $end
$var reg       1 D    M_SCK $end
$var reg       1 E    M_SS $end
$var reg      12 F    cal [11:0] $end
$var parameter  2 G    IDLE $end
$var parameter  2 H    MASTER $end
$var parameter  2 I    SLAVE $end
$var reg       2 J    STATUS [1:0] $end
$var reg       1 K    M_MOSI $end
$var wire      1 L    S_CLK  $end
$var reg       1 M    S_MISO $end
$upscope $end

$upscope $end

$enddefinitions $end
$dumpvars
b10 I
b1 H
b0 G
0!
1"
0#
1$
bx %
x&
bx '
bx (
x)
x*
x+
x,
x-
bx .
x/
bx 0
bx 1
x2
x3
x4
x5
x6
bx 7
x8
bx 9
bx :
x;
bx <
bx =
bx >
bx ?
bx @
bx A
bx B
bx C
xD
xE
bx F
bx J
xK
xL
xM
$end
#5
0"
1!
1#
0$
b0 B
0K
1E
0M
b100 <
b0 =
b10000 >
b0 ?
b0 @
b0 A
b0 J
b0 C
b0 F
0D
0;
b0 :
z,
z-
z+
z*
zL
0)
b0 (
#6
bz '
bz 0
0&
02
08
bz 9
#10
0!
0#
#15
1!
1#
b0 .
0/
z3
z4
z5
z6
b10 J
0+
#16
b1000100000100001000000000000001 %
b1000100000100001000000000000001 1
b1000100000100001000000000000001 7
1-
b10010000 >
z+
#18
1"
1$
#20
0!
0#
#25
1!
1#
16
b0 J
#30
0!
0#
#35
1!
1#
b1000100 <
b10000 =
b10000000 >
b1 ?
b10 J
#40
0!
0#
#45
1!
1#
b1 F
#50
0!
0#
#55
1!
1#
#60
0!
0#
#65
1!
1#
#66
b110 '
b110 0
b110 9
0*
0,
0-
0L
b110 @
b0 >
0+
#70
0!
0#
#75
1!
1#
03
04
05
06
#80
0!
0#
#85
1!
1#
#86
1*
1L
#90
0!
0#
#95
1!
1#
13
#100
0!
0#
#105
1!
1#
#106
0*
0L
b11 @
#110
0!
0#
#115
1!
1#
03
#120
0!
0#
#125
1!
1#
#126
1*
1,
1L
1M
1+
#130
0!
0#
#135
1!
1#
13
14
15
#140
0!
0#
#145
1!
1#
#146
0*
0L
b10000001 @
#150
0!
0#
#155
1!
1#
03
#160
0!
0#
#165
1!
1#
#166
1*
1L
#170
0!
0#
#175
1!
1#
13
#180
0!
0#
#185
1!
1#
#186
0*
0L
b11000000 @
#190
0!
0#
#195
1!
1#
03
#200
0!
0#
#205
1!
1#
#206
1*
1L
0M
0+
#210
0!
0#
#215
1!
1#
13
04
#220
0!
0#
#225
1!
1#
#226
0*
0L
b11100000 @
#230
0!
0#
#235
1!
1#
03
#240
0!
0#
#245
1!
1#
#246
1*
0,
1L
#250
0!
0#
#255
1!
1#
13
05
#260
0!
0#
#265
1!
1#
#266
0*
0L
b1110000 @
#270
0!
0#
#275
1!
1#
03
#280
0!
0#
#285
1!
1#
#286
1*
1L
#290
0!
0#
#295
1!
1#
13
#300
0!
0#
#305
1!
1#
#306
0*
0L
b111000 @
#310
0!
0#
#315
1!
1#
03
#320
0!
0#
#325
1!
1#
#326
1*
1L
#330
0!
0#
#335
1!
1#
13
#340
0!
0#
#345
1!
1#
#346
0*
0L
b11100 @
#350
0!
0#
#355
1!
1#
03
#360
0!
0#
#365
1!
1#
#366
1*
1L
#370
0!
0#
#375
1!
1#
13
#380
0!
0#
#385
1!
1#
#386
0*
0L
b1110 @
#390
0!
0#
#395
1!
1#
03
#400
0!
0#
#405
1!
1#
#406
1-
b1110 A
b10000000 >
b1110 :
z+
b1110 (
#410
0!
0#
#415
1!
1#
b1110 .
z4
16
#420
0!
0#
#425
1!
1#
#430
0!
0#
#435
1!
1#
#440
0!
0#
#445
1!
1#
#450
0!
0#
#455
1!
1#
#460
0!
0#
#465
1!
1#
#466
b10001111 '
b10001111 0
b10001111 9
0-
b10001111 @
b0 >
0+
#470
0!
0#
#475
1!
1#
04
06
#480
0!
0#
#485
1!
1#
#486
1*
1,
1L
1M
1+
#490
0!
0#
#495
1!
1#
13
14
15
#500
0!
0#
#505
1!
1#
#506
0*
0L
b11000111 @
#510
0!
0#
#515
1!
1#
03
#520
0!
0#
#525
1!
1#
#526
1*
1L
#530
0!
0#
#535
1!
1#
13
#540
0!
0#
#545
1!
1#
#546
0*
0L
b11100011 @
#550
0!
0#
#555
1!
1#
03
#560
0!
0#
#565
1!
1#
#566
1*
1L
#570
0!
0#
#575
1!
1#
13
#580
0!
0#
#585
1!
1#
#586
0*
0L
b11110001 @
#590
0!
0#
#595
1!
1#
03
#600
0!
0#
#605
1!
1#
#606
1*
1L
#610
0!
0#
#615
1!
1#
13
#620
0!
0#
#625
1!
1#
#626
0*
0L
b11111000 @
#630
0!
0#
#635
1!
1#
03
#640
0!
0#
#645
1!
1#
#646
1*
0,
1L
0M
0+
#650
0!
0#
#655
1!
1#
13
04
05
#660
0!
0#
#665
1!
1#
#666
0*
0L
b1111100 @
#670
0!
0#
#675
1!
1#
03
#680
0!
0#
#685
1!
1#
#686
1*
1,
1L
#690
0!
0#
#695
1!
1#
13
15
#700
0!
0#
#705
1!
1#
#706
0*
0L
b10111110 @
#710
0!
0#
#715
1!
1#
03
#720
0!
0#
#725
1!
1#
#726
1*
1L
#730
0!
0#
#735
1!
1#
13
#740
0!
0#
#745
1!
1#
#746
0*
0L
b11011111 @
#750
0!
0#
#755
1!
1#
03
#760
0!
0#
#765
1!
1#
#766
1*
1L
1M
1+
#770
0!
0#
#775
1!
1#
13
14
#780
0!
0#
#785
1!
1#
#786
0*
0L
b11101111 @
#790
0!
0#
#795
1!
1#
03
#800
0!
0#
#805
1!
1#
#806
1-
b11101111 A
b10000000 >
b11101111 :
z+
b11101111 (
#810
0!
0#
#815
1!
1#
b11101111 .
z4
16
#820
0!
0#
#825
1!
1#
#830
0!
0#
#835
1!
1#
#840
0!
0#
#845
1!
1#
#850
0!
0#
#855
1!
1#
#860
0!
0#
#865
1!
1#
#866
b1000100 '
b1000100 0
b1000100 9
0,
0-
b1000100 @
b0 >
1+
#870
0!
0#
#875
1!
1#
14
05
06
#880
0!
0#
#885
1!
1#
#886
1*
1,
1L
0M
0+
#890
0!
0#
#895
1!
1#
13
04
15
#900
0!
0#
#905
1!
1#
#906
0*
0L
b10100010 @
#910
0!
0#
#915
1!
1#
03
#920
0!
0#
#925
1!
1#
#926
1*
1L
#930
0!
0#
#935
1!
1#
13
#940
0!
0#
#945
1!
1#
#946
0*
0L
b11010001 @
#950
0!
0#
#955
1!
1#
03
#960
0!
0#
#965
1!
1#
#966
1*
0,
1L
1M
1+
#970
0!
0#
#975
1!
1#
13
14
05
#980
0!
0#
#985
1!
1#
#986
0*
0L
b1101000 @
#990
0!
0#
#995
1!
1#
03
#1000
0!
0#
#1005
1!
1#
#1006
1*
1,
1L
0M
0+
#1010
0!
0#
#1015
1!
1#
13
04
15
#1020
0!
0#
#1025
1!
1#
#1026
0*
0L
b10110100 @
#1030
0!
0#
#1035
1!
1#
03
#1040
0!
0#
#1045
1!
1#
#1046
1*
1L
#1050
0!
0#
#1055
1!
1#
13
#1060
0!
0#
#1065
1!
1#
#1066
0*
0L
b11011010 @
#1070
0!
0#
#1075
1!
1#
03
#1080
0!
0#
#1085
1!
1#
#1086
1*
1L
#1090
0!
0#
#1095
1!
1#
13
#1100
0!
0#
#1105
1!
1#
#1106
0*
0L
b11101101 @
#1110
0!
0#
#1115
1!
1#
03
#1120
0!
0#
#1125
1!
1#
#1126
1*
0,
1L
1M
1+
#1130
0!
0#
#1135
1!
1#
13
14
05
#1140
0!
0#
#1145
1!
1#
#1146
0*
0L
b1110110 @
#1150
0!
0#
#1155
1!
1#
03
#1160
0!
0#
#1165
1!
1#
#1166
1*
1L
0M
0+
#1170
0!
0#
#1175
1!
1#
13
04
#1180
0!
0#
#1185
1!
1#
#1186
0*
0L
b111011 @
#1190
0!
0#
#1195
1!
1#
03
#1200
0!
0#
#1205
1!
1#
#1206
1-
b111011 A
b10000000 >
b111011 :
z+
b111011 (
#1210
0!
0#
#1215
1!
1#
b111011 .
z4
16
#1220
0!
0#
#1225
1!
1#
#1230
0!
0#
#1235
1!
1#
#1240
0!
0#
#1245
1!
1#
#1250
0!
0#
#1255
1!
1#
#1260
0!
0#
#1265
1!
1#
#1266
b10111011 '
b10111011 0
b10111011 9
0-
b10111011 @
b0 >
0+
#1270
0!
0#
#1275
1!
1#
04
06
#1280
0!
0#
#1285
1!
1#
#1286
1*
1,
1L
1M
1+
#1290
0!
0#
#1295
1!
1#
13
14
15
#1300
0!
0#
#1305
1!
1#
#1306
0*
0L
b11011101 @
#1310
0!
0#
#1315
1!
1#
03
#1320
0!
0#
#1325
1!
1#
#1326
1*
1L
#1330
0!
0#
#1335
1!
1#
13
#1340
0!
0#
#1345
1!
1#
#1346
0*
0L
b11101110 @
#1350
0!
0#
#1355
1!
1#
03
#1360
0!
0#
#1365
1!
1#
#1366
1*
0,
1L
0M
0+
#1370
0!
0#
#1375
1!
1#
13
04
05
#1380
0!
0#
#1385
1!
1#
#1386
0*
0L
b1110111 @
#1390
0!
0#
#1395
1!
1#
03
#1400
0!
0#
#1405
1!
1#
#1406
1*
1L
1M
1+
#1410
0!
0#
#1415
1!
1#
13
14
#1420
0!
0#
#1425
1!
1#
#1426
0*
0L
b111011 @
#1430
0!
0#
#1435
1!
1#
03
#1440
0!
0#
#1445
1!
1#
#1446
1*
1L
#1450
0!
0#
#1455
1!
1#
13
#1460
0!
0#
#1465
1!
1#
#1466
0*
0L
b11101 @
#1470
0!
0#
#1475
1!
1#
03
#1480
0!
0#
#1485
1!
1#
#1486
1*
1L
#1490
0!
0#
#1495
1!
1#
13
#1500
0!
0#
#1505
1!
1#
#1506
0*
0L
b1110 @
#1510
0!
0#
#1515
1!
1#
03
#1520
0!
0#
#1525
1!
1#
#1526
1*
1L
0M
0+
#1530
0!
0#
#1535
1!
1#
13
04
#1540
0!
0#
#1545
1!
1#
#1546
0*
0L
b111 @
#1550
0!
0#
#1555
1!
1#
03
#1560
0!
0#
#1565
1!
1#
#1566
1*
1,
1L
1M
1+
#1570
0!
0#
#1575
1!
1#
13
14
15
#1580
0!
0#
#1585
1!
1#
#1586
0*
0L
b10000011 @
#1590
0!
0#
#1595
1!
1#
03
#1600
0!
0#
#1605
1!
1#
#1606
1-
b10000011 A
b10000000 >
b10000011 :
z+
b10000011 (
#1610
0!
0#
#1615
1!
1#
b10000011 .
z4
16
#1620
0!
0#
#1625
1!
1#
#1630
0!
0#
#1635
1!
1#
#1640
0!
0#
#1645
1!
1#
#1650
0!
0#
#1655
1!
1#
#1660
0!
0#
#1665
1!
1#
#1666
b1100011 '
b1100011 0
b1100011 9
0,
0-
b1100011 @
b0 >
1+
#1670
0!
0#
#1675
1!
1#
14
05
06
#1680
0!
0#
#1685
1!
1#
#1686
1*
1L
#1690
0!
0#
#1695
1!
1#
13
#1700
0!
0#
#1705
1!
1#
#1706
0*
0L
b110001 @
#1710
0!
0#
#1715
1!
1#
03
#1720
0!
0#
#1725
1!
1#
#1726
1*
1L
#1730
0!
0#
#1735
1!
1#
13
#1740
0!
0#
#1745
1!
1#
#1746
0*
0L
b11000 @
#1750
0!
0#
#1755
1!
1#
03
#1760
0!
0#
#1765
1!
1#
#1766
1*
1,
1L
0M
0+
#1770
0!
0#
#1775
1!
1#
13
04
15
#1780
0!
0#
#1785
1!
1#
#1786
0*
0L
b10001100 @
#1790
0!
0#
#1795
1!
1#
03
#1800
0!
0#
#1805
1!
1#
#1806
1*
0,
1L
#1810
0!
0#
#1815
1!
1#
13
05
#1820
0!
0#
#1825
1!
1#
#1826
0*
0L
b1000110 @
#1830
0!
0#
#1835
1!
1#
03
#1840
0!
0#
#1845
1!
1#
#1846
1*
1,
1L
#1850
0!
0#
#1855
1!
1#
13
15
#1860
0!
0#
#1865
1!
1#
#1866
0*
0L
b10100011 @
#1870
0!
0#
#1875
1!
1#
03
#1880
0!
0#
#1885
1!
1#
#1886
1*
1L
1M
1+
#1890
0!
0#
#1895
1!
1#
13
14
#1900
0!
0#
#1905
1!
1#
#1906
0*
0L
b11010001 @
#1910
0!
0#
#1915
1!
1#
03
#1920
0!
0#
#1925
1!
1#
#1926
1*
0,
1L
#1930
0!
0#
#1935
1!
1#
13
05
#1940
0!
0#
#1945
1!
1#
#1946
0*
0L
b1101000 @
#1950
0!
0#
#1955
1!
1#
03
#1960
0!
0#
#1965
1!
1#
#1966
1*
1,
1L
0M
0+
#1970
0!
0#
#1975
1!
1#
13
04
15
#1980
0!
0#
#1985
1!
1#
#1986
0*
0L
b10110100 @
#1990
0!
0#
#1995
1!
1#
03
#2000
0!
0#
#2005
1!
1#
#2006
1-
b10110100 A
b10000000 >
b10110100 :
z+
b10110100 (
#2010
0!
0#
#2015
1!
1#
b10110100 .
z4
16
#2020
0!
0#
#2025
1!
1#
#2030
0!
0#
#2035
1!
1#
#2040
0!
0#
#2045
1!
1#
#2050
0!
0#
#2055
1!
1#
#2060
0!
0#
#2065
1!
1#
#2066
b100101 '
b100101 0
b100101 9
0,
0-
b100101 @
b0 >
0+
#2070
0!
0#
#2075
1!
1#
04
05
06
#2080
0!
0#
#2085
1!
1#
#2086
1*
1L
1M
1+
#2090
0!
0#
#2095
1!
1#
13
14
#2100
0!
0#
#2105
1!
1#
#2106
0*
0L
b10010 @
#2110
0!
0#
#2115
1!
1#
03
#2120
0!
0#
#2125
1!
1#
#2126
1*
1,
1L
0M
0+
#2130
0!
0#
#2135
1!
1#
13
04
15
#2140
0!
0#
#2145
1!
1#
#2146
0*
0L
b10001001 @
#2150
0!
0#
#2155
1!
1#
03
#2160
0!
0#
#2165
1!
1#
#2166
1*
0,
1L
1M
1+
#2170
0!
0#
#2175
1!
1#
13
14
05
#2180
0!
0#
#2185
1!
1#
#2186
0*
0L
b1000100 @
#2190
0!
0#
#2195
1!
1#
03
#2200
0!
0#
#2205
1!
1#
#2206
1*
1L
0M
0+
#2210
0!
0#
#2215
1!
1#
13
04
#2220
0!
0#
#2225
1!
1#
#2226
0*
0L
b100010 @
#2230
0!
0#
#2235
1!
1#
03
#2240
0!
0#
#2245
1!
1#
#2246
1*
1,
1L
#2250
0!
0#
#2255
1!
1#
13
15
#2260
0!
0#
#2265
1!
1#
#2266
0*
0L
b10010001 @
#2270
0!
0#
#2275
1!
1#
03
#2280
0!
0#
#2285
1!
1#
#2286
1*
0,
1L
1M
1+
#2290
0!
0#
#2295
1!
1#
13
14
05
#2300
0!
0#
#2305
1!
1#
#2306
0*
0L
b1001000 @
#2310
0!
0#
#2315
1!
1#
03
#2320
0!
0#
#2325
1!
1#
#2326
1*
1L
0M
0+
#2330
0!
0#
#2335
1!
1#
13
04
#2340
0!
0#
#2345
1!
1#
#2346
0*
0L
b100100 @
#2350
0!
0#
#2355
1!
1#
03
#2360
0!
0#
#2365
1!
1#
#2366
1*
1L
#2370
0!
0#
#2375
1!
1#
13
#2380
0!
0#
#2385
1!
1#
#2386
0*
0L
b10010 @
#2390
0!
0#
#2395
1!
1#
03
#2400
0!
0#
#2405
1!
1#
#2406
1-
b10010 A
b10000000 >
b10010 :
z+
b10010 (
#2410
0!
0#
#2415
1!
1#
b10010 .
z4
16
#2420
0!
0#
#2425
1!
1#
#2430
0!
0#
#2435
1!
1#
#2440
0!
0#
#2445
1!
1#
#2450
0!
0#
#2455
1!
1#
#2460
0!
0#
#2465
1!
1#
#2466
b11001101 '
b11001101 0
b11001101 9
0-
b11001101 @
b0 >
0+
#2470
0!
0#
#2475
1!
1#
04
06
#2480
0!
0#
#2485
1!
1#
#2486
1*
1,
1L
1M
1+
#2490
0!
0#
#2495
1!
1#
13
14
15
#2500
0!
0#
#2505
1!
1#
#2506
0*
0L
b11100110 @
#2510
0!
0#
#2515
1!
1#
03
#2520
0!
0#
#2525
1!
1#
#2526
1*
0,
1L
0M
0+
#2530
0!
0#
#2535
1!
1#
13
04
05
#2540
0!
0#
#2545
1!
1#
#2546
0*
0L
b1110011 @
#2550
0!
0#
#2555
1!
1#
03
#2560
0!
0#
#2565
1!
1#
#2566
1*
1L
1M
1+
#2570
0!
0#
#2575
1!
1#
13
14
#2580
0!
0#
#2585
1!
1#
#2586
0*
0L
b111001 @
#2590
0!
0#
#2595
1!
1#
03
#2600
0!
0#
#2605
1!
1#
#2606
1*
1L
#2610
0!
0#
#2615
1!
1#
13
#2620
0!
0#
#2625
1!
1#
#2626
0*
0L
b11100 @
#2630
0!
0#
#2635
1!
1#
03
#2640
0!
0#
#2645
1!
1#
#2646
1*
1,
1L
0M
0+
#2650
0!
0#
#2655
1!
1#
13
04
15
#2660
0!
0#
#2665
1!
1#
#2666
0*
0L
b10001110 @
#2670
0!
0#
#2675
1!
1#
03
#2680
0!
0#
#2685
1!
1#
#2686
1*
0,
1L
#2690
0!
0#
#2695
1!
1#
13
05
#2700
0!
0#
#2705
1!
1#
#2706
0*
0L
b1000111 @
#2710
0!
0#
#2715
1!
1#
03
#2720
0!
0#
#2725
1!
1#
#2726
1*
1,
1L
1M
1+
#2730
0!
0#
#2735
1!
1#
13
14
15
#2740
0!
0#
#2745
1!
1#
#2746
0*
0L
b10100011 @
#2750
0!
0#
#2755
1!
1#
03
#2760
0!
0#
#2765
1!
1#
#2766
1*
1L
#2770
0!
0#
#2775
1!
1#
13
#2780
0!
0#
#2785
1!
1#
#2786
0*
0L
b11010001 @
#2790
0!
0#
#2795
1!
1#
03
#2800
0!
0#
#2805
1!
1#
#2806
1-
b11010001 A
b10000000 >
b11010001 :
z+
b11010001 (
#2810
0!
0#
#2815
1!
1#
b11010001 .
z4
16
#2820
0!
0#
#2825
1!
1#
#2830
0!
0#
#2835
1!
1#
#2840
0!
0#
#2845
1!
1#
#2850
0!
0#
#2855
1!
1#
#2860
0!
0#
#2865
1!
1#
#2866
b10000010 '
b10000010 0
b10000010 9
0,
0-
b10000010 @
b0 >
1+
#2870
0!
0#
#2875
1!
1#
14
05
06
#2880
0!
0#
#2885
1!
1#
#2886
1*
1,
1L
0M
0+
#2890
0!
0#
#2895
1!
1#
13
04
15
#2900
0!
0#
#2905
1!
1#
#2906
0*
0L
b11000001 @
#2910
0!
0#
#2915
1!
1#
03
#2920
0!
0#
#2925
1!
1#
#2926
1*
0,
1L
1M
1+
#2930
0!
0#
#2935
1!
1#
13
14
05
#2940
0!
0#
#2945
1!
1#
#2946
0*
0L
b1100000 @
#2950
0!
0#
#2955
1!
1#
03
#2960
0!
0#
#2965
1!
1#
#2966
1*
1,
1L
0M
0+
#2970
0!
0#
#2975
1!
1#
13
04
15
#2980
0!
0#
#2985
1!
1#
#2986
0*
0L
b10110000 @
#2990
0!
0#
#2995
1!
1#
03
#3000
0!
0#
#3005
1!
1#
#3006
1*
1L
#3010
0!
0#
#3015
1!
1#
13
#3020
0!
0#
#3025
1!
1#
#3026
0*
0L
b11011000 @
#3030
0!
0#
#3035
1!
1#
03
#3040
0!
0#
#3045
1!
1#
#3046
1*
0,
1L
#3050
0!
0#
#3055
1!
1#
13
05
#3060
0!
0#
#3065
1!
1#
#3066
0*
0L
b1101100 @
#3070
0!
0#
#3075
1!
1#
03
#3080
0!
0#
#3085
1!
1#
#3086
1*
1,
1L
#3090
0!
0#
#3095
1!
1#
13
15
#3100
0!
0#
#3105
1!
1#
#3106
0*
0L
b10110110 @
#3110
0!
0#
#3115
1!
1#
03
#3120
0!
0#
#3125
1!
1#
#3126
1*
0,
1L
#3130
0!
0#
#3135
1!
1#
13
05
#3140
0!
0#
#3145
1!
1#
#3146
0*
0L
b1011011 @
#3150
0!
0#
#3155
1!
1#
03
#3160
0!
0#
#3165
1!
1#
#3166
1*
1L
1M
1+
#3170
0!
0#
#3175
1!
1#
13
14
#3180
0!
0#
#3185
1!
1#
#3186
0*
0L
b101101 @
#3190
0!
0#
#3195
1!
1#
03
#3200
0!
0#
#3205
1!
1#
#3206
1-
b101101 A
b10000000 >
b101101 :
z+
b101101 (
#3210
0!
0#
#3215
1!
1#
b101101 .
z4
16
#3220
0!
0#
#3225
1!
1#
#3230
0!
0#
#3235
1!
1#
#3240
0!
0#
#3245
1!
1#
#3250
0!
0#
#3255
1!
1#
#3260
0!
0#
#3265
1!
1#
#3266
b11111001 '
b11111001 0
b11111001 9
0-
b11111001 @
b0 >
1+
#3270
0!
0#
#3275
1!
1#
14
06
#3280
0!
0#
#3285
1!
1#
#3286
1*
1L
#3290
0!
0#
#3295
1!
1#
13
#3300
0!
0#
#3305
1!
1#
#3306
0*
0L
b1111100 @
#3310
0!
0#
#3315
1!
1#
03
#3320
0!
0#
#3325
1!
1#
#3326
1*
1,
1L
0M
0+
#3330
0!
0#
#3335
1!
1#
13
04
15
#3340
0!
0#
#3345
1!
1#
#3346
0*
0L
b10111110 @
#3350
0!
0#
#3355
1!
1#
03
#3360
0!
0#
#3365
1!
1#
#3366
1*
1L
#3370
0!
0#
#3375
1!
1#
13
#3380
0!
0#
#3385
1!
1#
#3386
0*
0L
b11011111 @
#3390
0!
0#
#3395
1!
1#
03
#3400
0!
0#
#3405
1!
1#
#3406
1*
0,
1L
1M
1+
#3410
0!
0#
#3415
1!
1#
13
14
05
#3420
0!
0#
#3425
1!
1#
#3426
0*
0L
b1101111 @
#3430
0!
0#
#3435
1!
1#
03
#3440
0!
0#
#3445
1!
1#
#3446
1*
1L
#3450
0!
0#
#3455
1!
1#
13
#3460
0!
0#
#3465
1!
1#
#3466
0*
0L
b110111 @
#3470
0!
0#
#3475
1!
1#
03
#3480
0!
0#
#3485
1!
1#
#3486
1*
1L
#3490
0!
0#
#3495
1!
1#
13
#3500
0!
0#
#3505
1!
1#
#3506
0*
0L
b11011 @
#3510
0!
0#
#3515
1!
1#
03
#3520
0!
0#
#3525
1!
1#
#3526
1*
1,
1L
#3530
0!
0#
#3535
1!
1#
13
15
#3540
0!
0#
#3545
1!
1#
#3546
0*
0L
b10001101 @
#3550
0!
0#
#3555
1!
1#
03
#3560
0!
0#
#3565
1!
1#
#3566
1*
1L
#3570
0!
0#
#3575
1!
1#
13
#3580
0!
0#
#3585
1!
1#
#3586
0*
0L
b11000110 @
#3590
0!
0#
#3595
1!
1#
03
#3600
0!
0#
#3605
1!
1#
#3606
1-
b11000110 A
b10000000 >
b11000110 :
z+
b11000110 (
#3610
0!
0#
#3615
1!
1#
b11000110 .
z4
16
#3620
0!
0#
#3625
1!
1#
#3630
0!
0#
#3635
1!
1#
#3640
0!
0#
#3645
1!
1#
#3650
0!
0#
#3655
1!
1#
#3660
0!
0#
#3665
1!
1#
#3666
b10101110 '
b10101110 0
b10101110 9
0,
0-
b10101110 @
b0 >
1+
#3670
0!
0#
#3675
1!
1#
14
05
06
#3680
0!
0#
#3685
1!
1#
#3686
1*
1L
0M
0+
#3690
0!
0#
#3695
1!
1#
13
04
#3700
0!
0#
#3705
1!
1#
#3706
0*
0L
b1010111 @
#3710
0!
0#
#3715
1!
1#
03
#3720
0!
0#
#3725
1!
1#
#3726
1*
1L
1M
1+
#3730
0!
0#
#3735
1!
1#
13
14
#3740
0!
0#
#3745
1!
1#
#3746
0*
0L
b101011 @
#3750
0!
0#
#3755
1!
1#
03
#3760
0!
0#
#3765
1!
1#
#3766
1*
1L
#3770
0!
0#
#3775
1!
1#
13
#3780
0!
0#
#3785
1!
1#
#3786
0*
0L
b10101 @
#3790
0!
0#
#3795
1!
1#
03
#3800
0!
0#
#3805
1!
1#
#3806
1*
1,
1L
#3810
0!
0#
#3815
1!
1#
13
15
#3820
0!
0#
#3825
1!
1#
#3826
0*
0L
b10001010 @
#3830
0!
0#
#3835
1!
1#
03
#3840
0!
0#
#3845
1!
1#
#3846
1*
0,
1L
0M
0+
#3850
0!
0#
#3855
1!
1#
13
04
05
#3860
0!
0#
#3865
1!
1#
#3866
0*
0L
b1000101 @
#3870
0!
0#
#3875
1!
1#
03
#3880
0!
0#
#3885
1!
1#
#3886
1*
1L
1M
1+
#3890
0!
0#
#3895
1!
1#
13
14
#3900
0!
0#
#3905
1!
1#
#3906
0*
0L
b100010 @
#3910
0!
0#
#3915
1!
1#
03
#3920
0!
0#
#3925
1!
1#
#3926
1*
1,
1L
0M
0+
#3930
0!
0#
#3935
1!
1#
13
04
15
#3940
0!
0#
#3945
1!
1#
#3946
0*
0L
b10010001 @
#3950
0!
0#
#3955
1!
1#
03
#3960
0!
0#
#3965
1!
1#
#3966
1*
0,
1L
1M
1+
#3970
0!
0#
#3975
1!
1#
13
14
05
#3980
0!
0#
#3985
1!
1#
#3986
0*
0L
b1001000 @
#3990
0!
0#
#3995
1!
1#
03
#4000
0!
0#
#4005
1!
1#
#4006
1-
b1001000 A
b10000000 >
b1001000 :
z+
b1001000 (
#4010
0!
0#
#4015
1!
1#
b1001000 .
z4
16
